29705
28841
18076
21011
478
1576
20710
29302
29115
29705
2500
7195
11446
23119
17240
25197
31536
22194
18381
21976
3815
23155
22519
11024
5312
17622
16220
15385
25967
478
17891
7036
15019
13296
19834
28127
23493
23276
19873
24538
20081
3376
164
17942
31668
15635
23493
25742
30716
23493
3644
8353
3442
5312
9456
7017
30925
19382
10312
23389
17771
15738
10920
8290
17272
13868
4766
15963
23470
14625
15068
12242
26877
31153
12058
27970
20418
23493
23027
338
21252
6083
25580
10847
13296
6197
23944
4567
12372
11920
27020
23493
11002
16408
30716
3977
25042
3430
7305
13868
4766
15963
